[
	{
		"a_name":"DL Store",
		"b_versionNameNew":"12",
		"c_versionName":"versionName",
		"d_linkDownload":"https://gitlab.com/dinhgaymuc/mi-store/-/raw/main/app/DLStore_v12.apk",
		"e_banner":"https://gitlab.com/dinhgaymuc/mi-store/-/raw/main/banner/bannerDLStore.png",
		"f_packageName":"com.dinhlap.dlstore",
		"g_note":"Danh sách các Shop đã mua bộ cài giao diện trong bài ghim nhóm cho ai cần \nLink : https://www.facebook.com/groups/xiaomihometv\nHiện nay bản HomeTV bị Lậu chia sẻ nhất nhiều trên mạng, youtube. Khuyến cáo mọi người không nên làm theo dùng một thời gian sẽ bị khoá giao diện.\n\nVà có một số shop đã sử dụng bản Lậu, bản chộm cắp còn thông báo, tạo tin linh tinh gây hoang mang, ảnh hưởng quyền lợi của người dùng bản quyền giao diện Home TV.\nHãy tôn trọng công sức, chất xám của người khác."
	},
	{
		"a_name":"Home TV",
		"b_versionNameNew":"18-DienMayCongTrinh,18-DienMayHalo,18-TiviXiaomiVietNam,TiviXiaomiVietNam,13.0.1,6.0,16-Mi3S,10.0.0,15.0.4,16-LongTV",
		"c_versionName":"13.0.1,X,6.0,16-Mi3S,10.0.0,15.0.4,16-LongTV,16-Shop,18-DienMayHalo",
		"d_linkDownload":"https://gitlab.com/dinhgaymuc/mi-store/-/raw/main/app/Home_TV_vHomeTVShop_v21_1900000000_MoDinhLap_Chiase.apk",
		"e_banner":"com.xiaomi.hometv,com.xiaomi.mitv.voicecontrol,com.dinhlap.mitv.voicecontrol",
		"f_packageName":"com.dinhlap.hometv",
		"g_note":"Cập nhật HomeTV cho TV \nNâng cấp bảo mật, giao giện đẹp hơn.\nThêm nhiều tính năng như đưa chương trình từ DL Tivi ra màn hình chính.\nNhà phát triển Đình Lập: https://www.facebook.com/DinhlapD.Lp"
	},
	{
		"a_name":"DL Store",
		"b_versionNameNew":"9.0C",
		"c_versionName":"versionName",
		"d_linkDownload":"https://gitlab.com/dinhgaymuc/mi-store/-/raw/main/app/DLStore_v9.0C.apk",
		"e_banner":"https://gitlab.com/dinhgaymuc/mi-store/-/raw/main/banner/bannerDLStoreLau1.png",
		"f_packageName":"com.dinhlap.dlstore",
		"g_note":"Nếu cập nhật thất bại hãy thử lại bản 2.\nThay đổi , chỉnh sửa máy chủ lưu trữ kho ứng dụng.\nVui lòng cập nhật để sử dụng nhiều ứng dụng hơn!\n\nGiao diện HomeTV do admin phát triển\nHiện tại có nhiều bên sử dụng bản Lậu mod, Chộm Cắp."
	},
	{
		"a_name":"DL Store chuẩn",
		"b_versionNameNew":"12",
		"c_versionName":"versionName",
		"d_linkDownload":"https://gitlab.com/dinhgaymuc/mi-store/-/raw/main/app/DLStore_v12.apk",
		"e_banner":"https://gitlab.com/dinhgaymuc/mi-store/-/raw/main/banner/bannerDLStoreTL2.png",
		"f_packageName":"com.dinhlap.dlstore",
		"g_note":"Nếu cập nhật thất bại hãy thử lại bản 1.\nThay đổi , chỉnh sửa máy chủ lưu trữ kho ứng dụng.\nVui lòng cập nhật để sử dụng nhiều ứng dụng hơn!\n\nGiao diện HomeTV do admin phát triển\nHiện tại có nhiều bên sử dụng bản Lậu mod, Chộm Cắp."
	},
	{
		"a_name":"YouTube",
		"b_versionNameNew":"2.02.14",
		"c_versionName":"versionName",
		"d_linkDownload":"https://gitlab.com/dinhgaymuc/mi-store/-/raw/main/Youtube/youtubeF.apk",
		"e_banner":"https://gitlab.com/dinhgaymuc/mi-store/-/raw/main/Youtube/youtube_tv.png",
		"f_packageName":"com.google.android.youtube.tv",
		"g_note":"Khám phá những nội dung thịnh hành trên thế giới -- từ các video nhạc đình đám cho đến các nội dung nổi bật về trò chơi, thể dục, phim ảnh, chương trình giải trí, tin tức, học tập và nhiều chủ đề khác. Đăng ký những kênh bạn yêu thích, duyệt xem nội dung đề xuất cho riêng bạn và tận hưởng thư viện nội dung 4K lớn nhất. \n\n- Nếu bị lỗi mạng(thử lại) thì hãy vào Cài đặt/Ứng dụng/Tìm phần quyền Internet và cấp cho youtube để sử dụng."
	},
	{
		"a_name":"Youtube To SmartNext",
		"b_versionNameNew":"4.0-DinhLap",
		"c_versionName":"versionName",
		"d_linkDownload":"https://gitlab.com/dinhgaymuc/mi-store/-/raw/main/YoutubeToStube/Youtube_to_SmartTubeNexv4.0.apk",
		"e_banner":"https://gitlab.com/dinhgaymuc/mi-store/-/raw/main/YoutubeToStube/YoutubeToSmartNext.png",
		"f_packageName":"com.google.android.youtube.tv",
		"g_note":"Youtube To SmartNext là cầu nối tìm kiếm kết quả Youtube chuyển sang cho các ứng dụng SmartYoutube.\n\nĐể sử dụng được hãy xoá Youtube Gốc và cài đặt Youtube To SmartNext.\n\nHỗ trợ cầu nối và độ yêu tiên khi bạn cài song song nhiều ứng dụng SmartYoutube:\ncom.liskovsoft.smarttubetv, com.liskovsoft.smarttubetv.beta,\ncom.teamsmart.videomanager.tv, com.redboxtv.smarttubetv,\ncom.sibsetru.smarttubetv.\n\nFaceBook nhà phát triển: https://www.facebook.com/DinhlapD.Lp"
	},
	{
		"a_name":"Youtube EA 43'",
		"b_versionNameNew":"9.1.0.50493",
		"c_versionName":"versionName",
		"d_linkDownload":"https://gitlab.com/dinhgaymuc/mi-store/-/raw/main/YoutubeA5/YouTube_a5_v9.1.0.apk",
		"e_banner":"https://gitlab.com/dinhgaymuc/mi-store/-/raw/main/YoutubeA5/YouTubeA5.png",
		"f_packageName":"com.cloudmosa.puffinTV.YouTube",
		"g_note":"YouTubeA5 mod từ\"Puffin cho YouTube\"\nKHÔNG được liên kết với YouTube hoặc Google, Inc. Nó được phát triển bởi CloudMosa, Inc. - tác giả của Trình duyệt web Puffin. Puffin cho YouTube là phiên bản đặc biệt của trình duyệt Puffin được tối ưu hóa cho người dùng YouTube. Phương châm của nó là \"Tốt hơn cho Ít\" - một trải nghiệm người dùng tốt hơn để sử dụng ít dữ liệu hơn."
	},
	{
		"a_name":"SmartTube Next(Stable)",
		"b_versionNameNew":"Luôn là bản Stable mới nhất",
		"c_versionName":"versionName",
		"d_linkDownload":"https://github.com/yuliskov/SmartTubeNext/releases/download/latest/smarttube_stable.apk",
		"e_banner":"https://gitlab.com/dinhgaymuc/mi-store/-/raw/main/Stube/SmartTube(Stable).png",
		"f_packageName":"com.teamsmart.videomanager.tv",
		"g_note":"SmartTubeNext - Ứng dụng SmartYoutube miễn phí chặn quảng cáo xem video youtube trên Android TV Box.\n\nCác tính năng phát hành hiện tại:\n\nChạy trên Android 4.3 trở lên\nDuyệt qua Tin tức, Trò chơi, Âm nhạc\nDuyệt qua đăng ký, lịch sử, danh sách phát\nPhát video\nThích, Không thích hoặc Đăng ký cho video\nTìm kiếm video\nXem nội dung kênh đã đăng ký\nThay đổi các cài đặt khác nhau cho trình phát video\nXem trước hoạt ảnh cho video\nCác kênh Android TV và hỗ trợ tìm kiếm"
	},
	{
		"a_name":"SmartTube Next(Beta)",
		"b_versionNameNew":"Luôn là bản Beta mới nhất",
		"c_versionName":"versionName",
		"d_linkDownload":"https://github.com/yuliskov/SmartTubeNext/releases/download/latest/smarttube_beta.apk",
		"e_banner":"https://gitlab.com/dinhgaymuc/mi-store/-/raw/main/Stube/SmartTube(Beta).png",
		"f_packageName":"com.liskovsoft.smarttubetv.beta",
		"g_note":"SmartTubeNext - Ứng dụng SmartYoutube miễn phí chặn quảng cáo xem video youtube trên Android TV Box.\n\nCác tính năng phát hành hiện tại:\n\nChạy trên Android 4.3 trở lên\nDuyệt qua Tin tức, Trò chơi, Âm nhạc\nDuyệt qua đăng ký, lịch sử, danh sách phát\nPhát video\nThích, Không thích hoặc Đăng ký cho video\nTìm kiếm video\nXem nội dung kênh đã đăng ký\nThay đổi các cài đặt khác nhau cho trình phát video\nXem trước hoạt ảnh cho video\nCác kênh Android TV và hỗ trợ tìm kiếm"
	},
	{
		"a_name":"SmartTube Next(v17.62 Stable)",
		"b_versionNameNew":"17.62",
		"c_versionName":"versionName",
		"d_linkDownload":"https://gitlab.com/dinhgaymuc/mi-store/-/raw/main/Stube/STubeNext_ststable_v17.62_r.apk",
		"e_banner":"https://gitlab.com/dinhgaymuc/mi-store/-/raw/main/Stube/SmartTube(Stable).png",
		"f_packageName":"com.teamsmart.videomanager.tv",
		"g_note":"SmartTubeNext v17.62 ổn định có thể dùng EA 43'\n\nCác tính năng phát hành hiện tại:\n\nChạy trên Android 4.3 trở lên\nDuyệt qua Tin tức, Trò chơi, Âm nhạc\nDuyệt qua đăng ký, lịch sử, danh sách phát\nPhát video\nThích, Không thích hoặc Đăng ký cho video\nTìm kiếm video\nXem nội dung kênh đã đăng ký\nThay đổi các cài đặt khác nhau cho trình phát video\nXem trước hoạt ảnh cho video\nCác kênh Android TV và hỗ trợ tìm kiếm"
	},
	{
		"a_name":"YouTube Kids TV",
		"b_versionNameNew":"1.12.02",
		"c_versionName":"versionName",
		"d_linkDownload":"https://gitlab.com/dinhgaymuc/mi-store/-/raw/main/YoutubeKids/Youtubetvkids.apk",
		"e_banner":"https://gitlab.com/dinhgaymuc/mi-store/-/raw/main/YoutubeKids/Youtubetvkids.png",
		"f_packageName":"com.google.android.youtube.tvkids",
		"g_note":"Trải nghiệm xem video trực tuyến an toàn hơn cho trẻ\nChúng tôi nỗ lực rất nhiều để giữ cho các video trên YouTube Kids luôn có nội dung phù hợp với gia đình. Để bảo vệ những người dùng nhỏ tuổi nhất trên mạng, chúng tôi kết hợp các bộ lọc tự động do nhiều nhóm kỹ sư thiết kế, quy trình xem xét thủ công và ý kiến phản hồi từ chính các bậc cha mẹ. Tuy nhiên, không có hệ thống nào là hoàn hảo và các video không phù hợp có thể vẫn lọt qua hệ thống của chúng tôi.\n\n- Nếu bị lỗi mạng(thử lại) thì hãy vào Cài đặt/Ứng dụng/Tìm phần quyền Internet và cấp cho youtube để sử dụng."
	},
	{
		"a_name":"DL Tivi",
		"b_versionNameNew":"12.8",
		"c_versionName":"versionName",
		"d_linkDownload":"https://gitlab.com/dinhgaymuc/mi-store/-/raw/main/DLTivi/DLTivi_v12.8.apk",
		"e_banner":"https://gitlab.com/dinhgaymuc/mi-store/-/raw/main/DLTivi/banner_DLTivi.png",
		"f_packageName":"com.dinhlap.tivi",
		"g_note":"+ Sửa lỗi nguồn phát video một số list.\n+ Sửa lỗi nguồn phát video từ HomeTV khi nguồn bị thay đổi.\n\nDL Tivi là ứng dụng xem video, truyền hình yêu cầu sử dụng mạng dàng cho cả điện thoạt và TV.\n+Tìm kiếm bằng giọng nói.\n+ Lưu lại hai đường link danh sách kênh\n+ Tự động vào ngay kênh phát gần nhất lần trước.\n+ Giao diện dễ dùng : nhấn phím sang Trái hoặc phím sang Phải hiện danh sách  kênh, nhấn phím OK để mở Controller.\n+ Thay đổi tỉ lệ màn hình cho phù hợp.\n+ Điều khiển kênh bằng các phím số.\n+ Tính năng khởi động cùng thiết bị có thể không hoạt động trên thiết bị xiaomi.\n\nNhà phát triển: Đình Lập\nLiên hệ: https://www.facebook.com/DinhlapD.Lp"
	},
	{
		"a_name":"WinTV Smart",
		"b_versionNameNew":"2.0.0",
		"c_versionName":"versionName",
		"d_linkDownload":"https://gitlab.com/dinhgaymuc/mi-store/-/raw/main/WinTVSmart/wintvsmart.apk",
		"e_banner":"https://gitlab.com/dinhgaymuc/mi-store/-/raw/main/WinTVSmart/winTV.png",
		"f_packageName":"com.wintv.smart",
		"g_note":"Xem K plus \nNguồn nhóm zalo WinTV IPTV"
	},
	{
		"a_name":"wintv.",
		"b_versionNameNew":"1.0",
		"c_versionName":"versionName",
		"d_linkDownload":"https://gitlab.com/dinhgaymuc/mi-store/-/raw/main/WinTVSmart/Wintv_v1.0.apk",
		"e_banner":"https://gitlab.com/dinhgaymuc/mi-store/-/raw/main/WinTVSmart/wintv_m.png",
		"f_packageName":"com.xemtv.vung",
		"g_note":"Nguồn nhóm WinTV IPTV"
	}
]